91
87 38 28 0 0 0.1484375 0.109375
64 32 31 0 0.109375 0.125 0.1210938
81 29 31 0 0.2304688 0.1132813 0.1210938
189 31 28 0.1484375 0 0.1210938 0.109375
77 30 28 0.2695313 0 0.1171875 0.109375
37 29 28 0.3867188 0 0.1132813 0.109375
65 27 28 0.5 0 0.1054688 0.109375
79 26 28 0.6054688 0 0.1015625 0.109375
38 26 28 0.7070313 0 0.1015625 0.109375
86 26 28 0.8085938 0 0.1015625 0.109375
88 25 28 0 0.3515625 0.09765625 0.109375
68 24 28 0 0.4609375 0.09375 0.109375
78 24 28 0 0.5703125 0.09375 0.109375
89 23 28 0 0.6796875 0.08984375 0.109375
71 23 28 0 0.7890625 0.08984375 0.109375
119 30 21 0.125 0.109375 0.1171875 0.08203125
109 30 21 0.2421875 0.109375 0.1171875 0.08203125
121 21 30 0.125 0.1914063 0.08203125 0.1171875
36 18 35 0.125 0.3085938 0.0703125 0.1367188
85 22 28 0.2070313 0.1914063 0.0859375 0.109375
82 22 28 0.2070313 0.3007813 0.0859375 0.109375
72 22 28 0.2070313 0.4101563 0.0859375 0.109375
90 22 28 0.2070313 0.5195313 0.0859375 0.109375
52 22 28 0.2070313 0.6289063 0.0859375 0.109375
75 22 28 0.2070313 0.7382813 0.0859375 0.109375
47 19 32 0.125 0.4453125 0.07421875 0.125
35 23 26 0.2929688 0.1914063 0.08984375 0.1015625
67 21 28 0.125 0.5703125 0.08203125 0.109375
92 18 32 0.125 0.6796875 0.0703125 0.125
113 19 30 0.125 0.8046875 0.07421875 0.1171875
112 19 30 0.2929688 0.2929688 0.07421875 0.1171875
107 19 30 0.2929688 0.4101563 0.07421875 0.1171875
103 19 30 0.2929688 0.5273438 0.07421875 0.1171875
100 19 30 0.2929688 0.6445313 0.07421875 0.1171875
98 19 30 0.2929688 0.7617188 0.07421875 0.1171875
55 20 28 0.3671875 0.2929688 0.078125 0.109375
48 20 28 0.4453125 0.2929688 0.078125 0.109375
84 20 28 0.5234375 0.2929688 0.078125 0.109375
104 18 30 0.3671875 0.4023438 0.0703125 0.1171875
80 19 28 0.6015625 0.2929688 0.07421875 0.109375
163 19 28 0.6757813 0.2929688 0.07421875 0.109375
66 19 28 0.75 0.2929688 0.07421875 0.109375
54 19 28 0.8242188 0.2929688 0.07421875 0.109375
57 19 28 0.4375 0.4023438 0.07421875 0.109375
56 19 28 0.5117188 0.4023438 0.07421875 0.109375
51 18 28 0.3671875 0.5195313 0.0703125 0.109375
83 18 28 0.3671875 0.6289063 0.0703125 0.109375
50 17 28 0.3671875 0.7382813 0.06640625 0.109375
53 17 28 0.5859375 0.4023438 0.06640625 0.109375
69 17 28 0.6523438 0.4023438 0.06640625 0.109375
70 17 28 0.71875 0.4023438 0.06640625 0.109375
106 12 39 0.4375 0.5117188 0.046875 0.1523438
167 15 30 0.484375 0.5117188 0.05859375 0.1171875
76 16 28 0.7851563 0.4023438 0.0625 0.109375
118 21 21 0.359375 0.109375 0.08203125 0.08203125
120 21 21 0.4414063 0.109375 0.08203125 0.08203125
111 20 21 0.5234375 0.109375 0.078125 0.08203125
63 15 28 0.8476563 0.4023438 0.05859375 0.109375
102 14 30 0.484375 0.6289063 0.0546875 0.1171875
117 19 21 0.6015625 0.109375 0.07421875 0.08203125
101 19 21 0.6757813 0.109375 0.07421875 0.08203125
123 12 34 0.4375 0.6640625 0.046875 0.1328125
125 12 34 0.4375 0.796875 0.046875 0.1328125
110 18 21 0.75 0.109375 0.0703125 0.08203125
97 18 21 0.8203125 0.109375 0.0703125 0.08203125
164 19 19 0.2070313 0.8476563 0.07421875 0.07421875
41 11 34 0.484375 0.7460938 0.04296875 0.1328125
40 11 34 0.5429688 0.5117188 0.04296875 0.1328125
74 13 28 0.5859375 0.5117188 0.05078125 0.109375
122 17 21 0.3828125 0.1914063 0.06640625 0.08203125
99 16 21 0.4492188 0.1914063 0.0625 0.08203125
116 13 26 0.5117188 0.1914063 0.05078125 0.1015625
49 12 28 0.6367188 0.5117188 0.046875 0.109375
93 10 34 0.5429688 0.6445313 0.0390625 0.1328125
115 15 21 0.5625 0.1914063 0.05859375 0.08203125
91 9 34 0.5429688 0.7773438 0.03515625 0.1328125
114 13 21 0.6210938 0.1914063 0.05078125 0.08203125
61 20 13 0.671875 0.1914063 0.078125 0.05078125
42 15 15 0.75 0.1914063 0.05859375 0.05859375
59 8 26 0.8085938 0.1914063 0.03125 0.1015625
105 7 30 0.5859375 0.6210938 0.02734375 0.1171875
33 7 28 0.9101563 0 0.02734375 0.109375
108 6 30 0.5859375 0.7382813 0.0234375 0.1171875
126 20 8 0 0.8984375 0.078125 0.03125
73 6 28 0.09375 0.4609375 0.0234375 0.109375
58 7 21 0.08984375 0.6796875 0.02734375 0.08203125
34 12 10 0.671875 0.2421875 0.046875 0.0390625
44 8 11 0.890625 0.109375 0.03125 0.04296875
95 17 5 0.8398438 0.1914063 0.06640625 0.01953125
45 11 5 0.75 0.25 0.04296875 0.01953125
46 7 7 0.08984375 0.7890625 0.02734375 0.02734375
